…
``` r
savaii_dhw <- get_crw_dhw_sf(feature  = savaii,
                             start    = "2023-01-01",
                             end      = "2024-12-31",
                             name_col = "island",
                             out_col  = "island",
                             summarise_daily = TRUE,
                             verbose  = TRUE)
#> Fetching DHW for Savaii...
#>   Fetching 2023...
#>   Fetching 2024...

savaii_dhw
#> # A tibble: 731 × 3
#>    island date       avg_dhw
#>    <chr>  <date>       <dbl>
#>  1 Savaii 2023-01-01       0
#>  2 Savaii 2023-01-02       0
#>  3 Savaii 2023-01-03       0
#>  4 Savaii 2023-01-04       0
#>  5 Savaii 2023-01-05       0
#>  6 Savaii 2023-01-06       0
#>  7 Savaii 2023-01-07       0
#>  8 Savaii 2023-01-08       0
#>  9 Savaii 2023-01-09       0
#> 10 Savaii 2023-01-10       0
#> # ℹ 721 more rows
```
…
dhw_samoa
#> # A tibble: 2,192 × 3
#>    island date       avg_dhw
#>    <chr>  <date>       <dbl>
#>  1 Savaii 2023-01-01       0
#>  2 Savaii 2023-01-02       0
#>  3 Savaii 2023-01-03       0
#>  4 Savaii 2023-01-04       0
#>  5 Savaii 2023-01-05       0
#>  6 Savaii 2023-01-06       0
#>  7 Savaii 2023-01-07       0
#>  8 Savaii 2023-01-08       0
#>  9 Savaii 2023-01-09       0
#> 10 Savaii 2023-01-10       0
#> # ℹ 2,182 more rows
```
…
